{
    "mode": "IQ",
    "sensor": [
        1
    ],
    "range_interval": [
        0.18,
        0.78
    ],
    "profile": "PROFILE_2",
    "update_rate": 20,
    "sampling_mode": "A",
    "repetition_mode": "HOST_DRIVEN",
    "downsampling_factor": 1,
    "hw_accelerated_average_samples": 10,
    "gain": 0.5,
    "maximize_signal_attenuation": false,
    "noise_level_normalization": true,
    "depth_lowpass_cutoff_ratio": null,
    "tx_disable": false,
    "power_save_mode": "ACTIVE"
}